simulation/qsim/batalha_naval.msim.vcd
$comment
	File created using the following command:
		vcd file batalha_naval.msim.vcd -direction
$end
$date
	Mon Dec 11 07:31:41 2023
$end
$version
	ModelSim Version 2020.1
$end
$timescale
	1ps
$end

$scope module batalha_naval_vlg_vec_tst $end
$var reg 1 ! clk $end
$var reg 1 " debouncedConfirmAttack $end
$var reg 3 # game_state_code [2:0] $end
$var reg 3 $ x_coord_and_map_code [2:0] $end
$var reg 3 % y_coord_code [2:0] $end
$var wire 1 & display_colune_activator [4] $end
$var wire 1 ' display_colune_activator [3] $end
$var wire 1 ( display_colune_activator [2] $end
$var wire 1 ) display_colune_activator [1] $end
$var wire 1 * display_colune_activator [0] $end
$var wire 1 + display_colune_data [6] $end
$var wire 1 , display_colune_data [5] $end
$var wire 1 - display_colune_data [4] $end
$var wire 1 . display_colune_data [3] $end
$var wire 1 / display_colune_data [2] $end
$var wire 1 0 display_colune_data [1] $end
$var wire 1 1 display_colune_data [0] $end
$var wire 1 2 ledRgb [1] $end
$var wire 1 3 ledRgb [0] $end
$var wire 1 4 matrix_colune_activator [4] $end
$var wire 1 5 matrix_colune_activator [3] $end
$var wire 1 6 matrix_colune_activator [2] $end
$var wire 1 7 matrix_colune_activator [1] $end
$var wire 1 8 matrix_colune_activator [0] $end
$var wire 1 9 matrix_colune_data [6] $end
$var wire 1 : matrix_colune_data [5] $end
$var wire 1 ; matrix_colune_data [4] $end
$var wire 1 < matrix_colune_data [3] $end
$var wire 1 = matrix_colune_data [2] $end
$var wire 1 > matrix_colune_data [1] $end
$var wire 1 ? matrix_colune_data [0] $end

$scope module i1 $end
$var wire 1 @ gnd $end
$var wire 1 A vcc $end
$var wire 1 B unknown $end
$var tri1 1 C devclrn $end
$var tri1 1 D devpor $end
$var tri1 1 E devoe $end
$var wire 1 F saveMapCode[1]|out~regout $end
$var wire 1 G saveMapCode[2]|out~regout $end
$var wire 1 H debouncedConfirmAttack~combout $end
$var wire 1 I andEnableAttack~combout $end
$var wire 1 J andHitsMapClk[4]~0_combout $end
$var wire 1 K andHitsMapClk[0]~combout $end
$var wire 1 L hits_map_register[0]|out~regout $end
$var wire 1 M clk~combout $end
$var wire 1 N codeSelect[1]|or0~0 $end
$var wire 1 O andHitsMapClk[1]~combout $end
$var wire 1 P hits_map_register[1]|out~regout $end
$var wire 1 Q counterMatrixDisplay|tff0|out~regout $end
$var wire 1 R counterMatrixDisplay|tff1|out~regout $end
$var wire 1 S counterMatrixDisplay|tff2|out~regout $end
$var wire 1 T registerMatrixDisplay|d_flipflop_0|out~regout $end
$var wire 1 U registerMatrixDisplay|d_flipflop_1|out~regout $end
$var wire 1 V codeSelect[0]|or0 $end
$var wire 1 W registerMatrixDisplay|d_flipflop_2|out~regout $end
$var wire 1 X orEnable $end
$var wire 1 Y correctHits[24]~0 $end
$var wire 1 Z mapDecoder|or30 $end
$var wire 1 [ matrixColuneData_1[0]|or0~2_combout $end
$var wire 1 \ yCoordDemuxHitsMap_0[0]|demux0|and0~2_combout $end
$var wire 1 ] yCoordDemuxHitsMap_0[0]|demux0|and0~3_combout $end
$var wire 1 ^ yCoordDemuxHitsMap_0[0]|demux0|and1~combout $end
$var wire 1 _ hits_map_register[21]|out~regout $end
$var wire 1 ` matrixColuneData_1[0]|or0~3_combout $end
$var wire 1 a matrixColuneData_1[0]|or0~4_combout $end
$var wire 1 b yCoordDemuxHitsMap_0[0]|demux0|and0~combout $end
$var wire 1 c hits_map_register[28]|out~regout $end
$var wire 1 d matrixColuneData_1[0]|or0~5_combout $end
$var wire 1 e matrixColuneData_1[0]|or0~6_combout $end
$var wire 1 f yCoordDemuxHitsMap_0[0]|demux1|and0~combout $end
$var wire 1 g hits_map_register[14]|out~regout $end
$var wire 1 h yCoordDemuxHitsMap_0[0]|demux1|and1~combout $end
$var wire 1 i hits_map_register[7]|out~regout $end
$var wire 1 j matrixColuneData_1[0]|or0~0_combout $end
$var wire 1 k registerMatrixDisplay|d_flipflop_3|out~regout $end
$var wire 1 l mapDecoder|or10 $end
$var wire 1 m matrixColuneData_1[0]|or0~1_combout $end
$var wire 1 n matrixColuneData_1[0]|or0~7_combout $end
$var wire 1 o yCoordDemuxHitsMap_0[1]|demux0|and1~combout $end
$var wire 1 p hits_map_register[22]|out~regout $end
$var wire 1 q matrixColuneData_1[1]|or0~2_combout $end
$var wire 1 r yCoordDemuxHitsMap_0[1]|demux0|and0~combout $end
$var wire 1 s hits_map_register[29]|out~regout $end
$var wire 1 t matrixColuneData_1[1]|or0~3_combout $end
$var wire 1 u matrixColuneData_1[1]|or0~4_combout $end
$var wire 1 v yCoordDemuxHitsMap_0[1]|demux1|and1~combout $end
$var wire 1 w hits_map_register[8]|out~regout $end
$var wire 1 x matrixColuneData_1[1]|or0~5_combout $end
$var wire 1 y yCoordDemuxHitsMap_0[1]|demux1|and0~combout $end
$var wire 1 z hits_map_register[15]|out~regout $end
$var wire 1 { matrixColuneData_1[1]|or0~1_combout $end
$var wire 1 | matrixColuneData_1[1]|or0~6_combout $end
$var wire 1 } matrixColuneData_1[1]|or0~0 $end
$var wire 1 ~ matrixColuneData_1[1]|or0~7_combout $end
$var wire 1 !! matrixColuneData_1[2]|or0~4_combout $end
$var wire 1 "! yCoordDemuxHitsMap_0[0]|demux0|and0~4_combout $end
$var wire 1 #! yCoordDemuxHitsMap_0[2]|demux0|and0~0_combout $end
$var wire 1 $! yCoordDemuxHitsMap_0[2]|demux0|and0~combout $end
$var wire 1 %! hits_map_register[30]|out~regout $end
$var wire 1 &! yCoordDemuxHitsMap_0[2]|demux0|and0~1_combout $end
$var wire 1 '! yCoordDemuxHitsMap_0[2]|demux1|and0~combout $end
$var wire 1 (! hits_map_register[16]|out~regout $end
$var wire 1 )! matrixColuneData_1[2]|or0~2_combout $end
$var wire 1 *! mapDecoder|or20~combout $end
$var wire 1 +! matrixColuneData_1[2]|or0~3_combout $end
$var wire 1 ,! yCoordDemuxHitsMap_0[2]|demux1|and1~combout $end
$var wire 1 -! hits_map_register[9]|out~regout $end
$var wire 1 .! mapDecoder|or80~0_combout $end
$var wire 1 /! yCoordDemuxHitsMap_0[2]|demux0|and1~combout $end
$var wire 1 0! hits_map_register[23]|out~regout $end
$var wire 1 1! xCoordMuxLedRgb|mux_0|mux2|and1~0_combout $end
$var wire 1 2! matrixColuneData_1[2]|or0~1_combout $end
$var wire 1 3! matrixColuneData_1[2]|or0~5_combout $end
$var wire 1 4! andHitsMapClk[2]~combout $end
$var wire 1 5! hits_map_register[2]|out~regout $end
$var wire 1 6! matrixColuneData_1[2]|or0~0_combout $end
$var wire 1 7! matrixColuneData_1[2]|or0~6_combout $end
$var wire 1 8! yCoordDemuxHitsMap_0[3]|demux1|and0~combout $end
$var wire 1 9! hits_map_register[17]|out~regout $end
$var wire 1 :! yCoordDemuxHitsMap_0[3]|demux0|and0~combout $end
$var wire 1 ;! hits_map_register[31]|out~regout $end
$var wire 1 <! matrixColuneData_1[3]|or0~2_combout $end
$var wire 1 =! yCoordDemuxHitsMap_0[3]|demux1|and1~combout $end
$var wire 1 >! hits_map_register[10]|out~regout $end
$var wire 1 ?! yCoordDemuxHitsMap_0[3]|demux0|and1~combout $end
$var wire 1 @! hits_map_register[24]|out~regout $end
$var wire 1 A! correctHits[24]~1_combout $end
$var wire 1 B! matrixColuneData_1[3]|or0~1_combout $end
$var wire 1 C! matrixColuneData_1[3]|or0~3_combout $end
$var wire 1 D! saveMapCode[0]|out~regout $end
$var wire 1 E! codeSelect[0]|and1~combout $end
$var wire 1 F! correctHits[18]~2_combout $end
$var wire 1 G! mapDecoder|andEnable[0]~0_combout $end
$var wire 1 H! mapDecoder|or110~0_combout $end
$var wire 1 I! matrixColuneData_1[3]|or0~4_combout $end
$var wire 1 J! matrixColuneData_1[3]|or0~5_combout $end
$var wire 1 K! andHitsMapClk[3]~combout $end
$var wire 1 L! hits_map_register[3]|out~regout $end
$var wire 1 M! mapDecoder|xor100~combout $end
$var wire 1 N! matrixColuneData_1[3]|or0~0_combout $end
$var wire 1 O! matrixColuneData_1[3]|or0~6_combout $end
$var wire 1 P! yCoordDemuxHitsMap_0[4]|demux0|and0~2_combout $end
$var wire 1 Q! yCoordDemuxHitsMap_0[4]|demux1|and0~combout $end
$var wire 1 R! hits_map_register[18]|out~regout $end
$var wire 1 S! correctHits[18]~3_combout $end
$var wire 1 T! correctHits[18]~4_combout $end
$var wire 1 U! mapDecoder|or120~0_combout $end
$var wire 1 V! matrixColuneData_1[4]|or0~1_combout $end
$var wire 1 W! yCoordDemuxHitsMap_0[4]|demux0|and0~combout $end
$var wire 1 X! hits_map_register[32]|out~regout $end
$var wire 1 Y! matrixColuneData_1[4]|or0~3_combout $end
$var wire 1 Z! yCoordDemuxHitsMap_0[4]|demux0|and1~combout $end
$var wire 1 [! hits_map_register[25]|out~regout $end
$var wire 1 \! matrixColuneData_1[4]|or0~2_combout $end
$var wire 1 ]! matrixColuneData_1[4]|or0~4_combout $end
$var wire 1 ^! yCoordDemuxHitsMap_0[4]|demux1|and1~combout $end
$var wire 1 _! hits_map_register[11]|out~regout $end
$var wire 1 `! matrixColuneData_1[4]|or0~5_combout $end
$var wire 1 a! matrixColuneData_1[4]|or0~6_combout $end
$var wire 1 b! andHitsMapClk[4]~combout $end
$var wire 1 c! hits_map_register[4]|out~regout $end
$var wire 1 d! matrixColuneData_1[4]|or0~0_combout $end
$var wire 1 e! matrixColuneData_1[4]|or0~7_combout $end
$var wire 1 f! yCoordDemuxHitsMap_0[5]|demux1|and1~combout $end
$var wire 1 g! hits_map_register[12]|out~regout $end
$var wire 1 h! matrixColuneData_1[5]|or0~6_combout $end
$var wire 1 i! matrixColuneData_1[5]|or0~7_combout $end
$var wire 1 j! yCoordDemuxHitsMap_0[5]|demux0|and1~combout $end
$var wire 1 k! hits_map_register[26]|out~regout $end
$var wire 1 l! matrixColuneData_1[5]|or0~2_combout $end
$var wire 1 m! yCoordDemuxHitsMap_0[5]|demux1|and0~combout $end
$var wire 1 n! hits_map_register[19]|out~regout $end
$var wire 1 o! matrixColuneData_1[5]|or0~3_combout $end
$var wire 1 p! yCoordDemuxHitsMap_0[5]|demux0|and0~combout $end
$var wire 1 q! hits_map_register[33]|out~regout $end
$var wire 1 r! matrixColuneData_1[5]|or0~4_combout $end
$var wire 1 s! matrixColuneData_1[5]|or0~5_combout $end
$var wire 1 t! matrixColuneData_1[5]|or0~8_combout $end
$var wire 1 u! matrixColuneData_1[5]|or0~9_combout $end
$var wire 1 v! yCoordDemuxHitsMap_0[6]|demux0|and1~combout $end
$var wire 1 w! hits_map_register[27]|out~regout $end
$var wire 1 x! yCoordDemuxHitsMap_0[6]|demux0|and0~combout $end
$var wire 1 y! hits_map_register[34]|out~regout $end
$var wire 1 z! matrixColuneData_1[6]|or0~0_combout $end
$var wire 1 {! matrixColuneData_1[6]|or0~1_combout $end
$var wire 1 |! matrixColuneData_1[6]|or0~2_combout $end
$var wire 1 }! displayCode[0]|mux2|or0~0_combout $end
$var wire 1 ~! displayCode[1]|mux2|or0~0_combout $end
$var wire 1 !" displayCode[1]|mux2|or0~1_combout $end
$var wire 1 "" displayCode[2]|mux2|or0~0_combout $end
$var wire 1 #" displayCode[2]|mux2|or0~1_combout $end
$var wire 1 $" displayCode[0]|mux2|or0~1_combout $end
$var wire 1 %" displayCode[0]|mux2|or0~2_combout $end
$var wire 1 &" displayDecoder|orEnable[0]~0_combout $end
$var wire 1 '" displayDecoder|orEnable[1]~1_combout $end
$var wire 1 (" displayDecoder|orEnable[2]~combout $end
$var wire 1 )" displayDecoder|orEnable[3]~2_combout $end
$var wire 1 *" displayDecoder|orEnable[4]~combout $end
$var wire 1 +" displayDecoder|orEnable[5]~3_combout $end
$var wire 1 ," displayDecoder|orEnable[6]~combout $end
$var wire 1 -" registerMatrixDisplay|d_flipflop_4|out~regout $end
$var wire 1 ." xCoordMuxLedRgb|mux_0|mux2|and0~5_combout $end
$var wire 1 /" xCoordMuxLedRgb|mux_0|mux2|and0~6_combout $end
$var wire 1 0" xCoordMuxLedRgb|mux_0|mux2|and0~7_combout $end
$var wire 1 1" xCoordMuxLedRgb|mux_0|mux2|and0~8_combout $end
$var wire 1 2" xCoordMuxLedRgb|mux_0|mux2|and0~1_combout $end
$var wire 1 3" xCoordMuxLedRgb|mux_0|mux2|and0~2_combout $end
$var wire 1 4" xCoordMuxLedRgb|mux_0|mux2|and0~3_combout $end
$var wire 1 5" xCoordMuxLedRgb|mux_0|mux2|and0~4_combout $end
$var wire 1 6" xCoordMuxLedRgb|mux_0|mux2|and0~9_combout $end
$var wire 1 7" xCoordMuxLedRgb|mux_0|mux2|and1~2_combout $end
$var wire 1 8" xCoordMuxLedRgb|mux_0|mux2|and1~3_combout $end
$var wire 1 9" xCoordMuxLedRgb|mux_0|mux2|and1~4_combout $end
$var wire 1 :" xCoordMuxLedRgb|mux_0|mux2|and1~5_combout $end
$var wire 1 ;" xCoordMuxLedRgb|mux_0|mux2|and1~1_combout $end
$var wire 1 <" xCoordMuxLedRgb|mux_0|mux2|and1~6_combout $end
$var wire 1 =" xCoordMuxLedRgb|mux_2|or0~4_combout $end
$var wire 1 >" xCoordMuxLedRgb|mux_0|mux2|and1~7_combout $end
$var wire 1 ?" xCoordMuxLedRgb|mux_0|mux2|and1~8_combout $end
$var wire 1 @" xCoordMuxLedRgb|mux_0|mux2|and0~0_combout $end
$var wire 1 A" xCoordMuxLedRgb|mux_2|or0~5_combout $end
$var wire 1 B" xCoordMuxLedRgb|mux_2|and1~0_combout $end
$var wire 1 C" xCoordMuxLedRgb|mux_2|and1~1_combout $end
$var wire 1 D" xCoordMuxLedRgb|mux_2|and1~2_combout $end
$var wire 1 E" xCoordMuxLedRgb|mux_2|and1~4_combout $end
$var wire 1 F" xCoordMuxLedRgb|mux_2|and1~5_combout $end
$var wire 1 G" xCoordMuxLedRgb|mux_2|and1~3_combout $end
$var wire 1 H" xCoordMuxLedRgb|mux_2|and1~6_combout $end
$var wire 1 I" xCoordMuxLedRgb|mux_2|or0~0_combout $end
$var wire 1 J" xCoordMuxLedRgb|mux_2|or0~1_combout $end
$var wire 1 K" xCoordMuxLedRgb|mux_2|and1~7_combout $end
$var wire 1 L" xCoordMuxLedRgb|mux_2|and1~8_combout $end
$var wire 1 M" xCoordMuxLedRgb|mux_2|and1~9_combout $end
$var wire 1 N" xCoordMuxLedRgb|mux_2|and1~10_combout $end
$var wire 1 O" xCoordMuxLedRgb|mux_2|or0~2_combout $end
$var wire 1 P" xCoordMuxLedRgb|mux_2|or0~3_combout $end
$var wire 1 Q" xCoordMuxLedRgb|mux_2|or0~6_combout $end
$var wire 1 R" andGreen~combout $end
$var wire 1 S" andRed~combout $end
$var wire 1 T" y_coord_code~combout [2] $end
$var wire 1 U" y_coord_code~combout [1] $end
$var wire 1 V" y_coord_code~combout [0] $end
$var wire 1 W" game_state_code~combout [2] $end
$var wire 1 X" game_state_code~combout [1] $end
$var wire 1 Y" game_state_code~combout [0] $end
$var wire 1 Z" x_coord_and_map_code~combout [2] $end
$var wire 1 [" x_coord_and_map_code~combout [1] $end
$var wire 1 \" x_coord_and_map_code~combout [0] $end
$upscope $end
$upscope $end
$enddefinitions $end
#0
$dumpvars
0!
1"
b0 #
b1 $
b1 %
1*
1)
1(
1'
1&
11
10
1/
1.
1-
1,
1+
03
02
08
07
06
05
04
0?
0>
0=
0<
0;
0:
09
0@
1A
xB
1C
1D
1E
0F
0G
1H
0I
0J
0K
0L
0M
0N
0O
0P
0Q
0R
0S
0T
0U
0V
0W
1X
1Y
0Z
0[
0\
0]
0^
0_
0`
0a
0b
0c
1d
1e
0f
0g
0h
0i
1j
0k
1l
0m
0n
0o
0p
1q
0r
0s
1t
1u
0v
0w
1x
0y
0z
1{
1|
1}
0~
1!!
0"!
0#!
0$!
0%!
0&!
0'!
0(!
0)!
1*!
1+!
0,!
0-!
1.!
0/!
00!
11!
12!
13!
04!
05!
16!
07!
08!
09!
0:!
0;!
1<!
0=!
0>!
0?!
0@!
1A!
1B!
1C!
0D!
0E!
0F!
0G!
1H!
0I!
1J!
0K!
0L!
1M!
1N!
0O!
0P!
0Q!
0R!
1S!
1T!
0U!
1V!
0W!
0X!
1Y!
0Z!
0[!
1\!
1]!
0^!
0_!
1`!
1a!
0b!
0c!
1d!
0e!
0f!
0g!
1h!
1i!
0j!
0k!
1l!
0m!
0n!
1o!
0p!
0q!
1r!
1s!
1t!
0u!
0v!
0w!
0x!
0y!
0z!
0{!
0|!
0}!
0~!
0!"
0""
0#"
0$"
0%"
0&"
1'"
1("
1)"
1*"
1+"
1,"
0-"
1."
0/"
00"
11"
02"
03"
04"
15"
16"
17"
18"
19"
1:"
1;"
1<"
1="
1>"
1?"
1@"
1A"
0B"
0C"
0D"
1E"
1F"
1G"
1H"
0I"
0J"
1K"
1L"
1M"
1N"
1O"
1P"
0Q"
1R"
0S"
1V"
0U"
0T"
0Y"
0X"
0W"
1\"
0["
0Z"
$end
#5000
1!
1M
#10000
0!
0M
#15000
1!
1M
#20000
0!
0M
#25000
1!
1M
#30000
0!
0M
#35000
1!
1M
#40000
0!
0M
#45000
1!
1M
#50000
0!
0M
#55000
1!
1M
#60000
0!
0M
#65000
1!
1M
#70000
0!
0M
#75000
1!
1M
#80000
0!
0M
#85000
1!
1M
#90000
0!
0M
#95000
1!
1M
#100000
0!
0M
#105000
1!
1M
#110000
0!
0M
#115000
1!
1M
#120000
0!
0M
#125000
1!
1M
#130000
0!
0M
#135000
1!
1M
#140000
0!
0M
#145000
1!
1M
#150000
0!
0M
#155000
1!
1M
#160000
0!
0M
#165000
1!
1M
#170000
0!
0M
#175000
1!
1M
#180000
0!
0M
#185000
1!
1M
#190000
0!
0M
#195000
1!
1M
#200000
0!
0M
#205000
1!
1M
#210000
0!
0M
#215000
1!
1M
#220000
0!
0M
#225000
1!
1M
#230000
0!
0M
#235000
1!
1M
#240000
0!
0M
#245000
1!
1M
#250000
b1 #
0!
1Y"
0M
1%"
1z!
1u!
0r!
0h!
0N!
1I!
1F!
0C!
06!
0t
0j
0d
0X
0}
0("
0'"
0s!
1O!
1G!
17!
0u
0e
1e!
1~
1n
1V
1:
0t!
1{!
0|
0n
0`!
1U!
0M!
0.!
0q
0l
1`
1Z
0/
00
1<
1=
1;
1>
1?
0u!
1|!
0~
0V!
1N!
1r!
0d!
0\!
0x
16!
1d
1}
0?
1s!
1e
0:
19
0>
1t!
1n
1u!
1?
1:
#255000
1!
1M
1Q
0%"
0s!
0]!
0e
1a
0+"
0*"
0)"
1&"
0a!
0n
1e
0e!
1n
0,
0-
0.
0?
01
0;
1?
#260000
0!
0M
#265000
1!
1M
1R
0Q
1}!
1s!
0I!
1|
0e
0t!
0a
1$"
1t!
1~
0n
0u!
1%"
1u!
1>
0?
0:
1+"
1*"
1)"
0&"
1:
1,
1-
1.
11
#270000
0!
0M
#275000
1!
1M
1Q
1]!
0J!
1u
1a
0O!
0|
0~
0<
0>
#280000
0!
0M
#285000
1!
1M
1S
0R
0Q
1O!
1~
0a
1[
0}!
1a!
1I!
1|
0u
1e
1J!
1n
0$"
0|
1<
1>
1?
#290000
0!
0M
#295000
1!
1M
1Q
0%"
0s!
0]!
0e
0+"
0*"
0)"
1&"
0a!
0,
0-
0.
01
#300000
0!
0M
#305000
1!
1M
1R
0Q
1}!
1s!
0I!
1|
0t!
1$"
1t!
1%"
1+"
1*"
1)"
0&"
1,
1-
1.
11
#310000
0!
0M
#315000
1!
1M
1Q
1]!
0J!
1u
0|
#320000
0!
0M
#325000
1!
1M
1T
0S
0R
0Q
0O!
0~
0[
0}!
1a!
1I!
1|
0u
1e
1J!
14
0&
0$"
1e!
1~
0|
1O!
0<
0>
0~
1;
1>
1<
0>
#330000
0!
0M
#335000
1!
1M
1U
0T
1Q
0%"
0s!
0]!
0e
1a
15
04
1&
0'
0+"
0*"
0)"
1&"
0a!
0n
1e
0e!
1n
0,
0-
0.
0?
01
0;
1?
#340000
0!
0M
#345000
1!
1M
1W
0U
1R
0Q
1}!
1s!
0I!
1|
0e
0t!
0a
16
05
1'
0(
1$"
1t!
1~
0n
0u!
1%"
1u!
1>
0?
0:
1+"
1*"
1)"
0&"
1:
1,
1-
1.
11
#350000
0!
0M
#355000
1!
1M
1k
0W
1Q
1]!
0J!
1u
1a
17
06
1(
0)
0O!
0|
0~
0<
0>
#360000
0!
0M
#365000
1!
1M
1-"
0k
1S
0R
0Q
1O!
1~
0a
1[
0}!
1a!
1I!
1|
0u
1e
1J!
18
07
1)
0*
1n
0$"
0|
1<
1>
1?
#370000
0!
0M
#375000
1!
1M
0-"
1Q
0%"
0s!
0]!
0e
08
1*
0+"
0*"
0)"
1&"
0a!
0,
0-
0.
01
#380000
0!
0M
#385000
1!
1M
1R
0Q
1}!
1s!
0I!
1|
0t!
1$"
1t!
1%"
1+"
1*"
1)"
0&"
1,
1-
1.
11
#390000
0!
0M
#395000
1!
1M
1Q
1]!
0J!
1u
0|
#400000
0!
0M
#405000
1!
1M
1T
0S
0R
0Q
0O!
0~
0[
0}!
1a!
1I!
1|
0u
1e
1J!
14
0&
0$"
1e!
1~
0|
1O!
0<
0>
0~
1;
1>
1<
0>
#410000
0!
0M
#415000
1!
1M
1U
0T
1Q
0%"
0s!
0]!
0e
1a
15
04
1&
0'
0+"
0*"
0)"
1&"
0a!
0n
1e
0e!
1n
0,
0-
0.
0?
01
0;
1?
#420000
0!
0M
#425000
1!
1M
1W
0U
1R
0Q
1}!
1s!
0I!
1|
0e
0t!
0a
16
05
1'
0(
1$"
1t!
1~
0n
0u!
1%"
1u!
1>
0?
0:
1+"
1*"
1)"
0&"
1:
1,
1-
1.
11
#430000
0!
0M
#435000
1!
1M
1k
0W
1Q
1]!
0J!
1u
1a
17
06
1(
0)
0O!
0|
0~
0<
0>
#440000
0!
0M
#445000
1!
1M
1-"
0k
1S
0R
0Q
1O!
1~
0a
1[
0}!
1a!
1I!
1|
0u
1e
1J!
18
07
1)
0*
1n
0$"
0|
1<
1>
1?
#450000
0!
0M
#455000
1!
1M
0-"
1Q
0%"
0s!
0]!
0e
08
1*
0+"
0*"
0)"
1&"
0a!
0,
0-
0.
01
#460000
0!
0M
#465000
1!
1M
1R
0Q
1}!
1s!
0I!
1|
0t!
1$"
1t!
1%"
1+"
1*"
1)"
0&"
1,
1-
1.
11
#470000
0!
0M
#475000
1!
1M
1Q
1]!
0J!
1u
0|
#480000
0!
0M
#485000
1!
1M
1T
0S
0R
0Q
0O!
0~
0[
0}!
1a!
1I!
1|
0u
1e
1J!
14
0&
0$"
1e!
1~
0|
1O!
0<
0>
0~
1;
1>
1<
0>
#490000
0!
0M
#495000
1!
1M
1U
0T
1Q
0%"
0s!
0]!
0e
1a
15
04
1&
0'
0+"
0*"
0)"
1&"
0a!
0n
1e
0e!
1n
0,
0-
0.
0?
01
0;
1?
#500000
0!
0M
#505000
1!
1M
1W
0U
1R
0Q
1}!
1s!
0I!
1|
0e
0t!
0a
16
05
1'
0(
1$"
1t!
1~
0n
0u!
1%"
1u!
1>
0?
0:
1+"
1*"
1)"
0&"
1:
1,
1-
1.
11
#510000
b11 #
0!
1X"
0M
#515000
1!
1M
1k
0W
1Q
1]!
0J!
1u
1a
17
06
1(
0)
0O!
0|
0~
0<
0>
#520000
0!
0M
#525000
1!
1M
1-"
0k
1S
0R
0Q
1O!
1~
0a
1[
1!"
0}!
1a!
1I!
1|
0u
1e
1J!
18
07
1)
0*
1n
0,"
0)"
1&"
0$"
0|
1<
1>
1?
0+
0.
01
#530000
0!
0M
#535000
1!
1M
0-"
1Q
0%"
0!"
0s!
0]!
0e
08
1*
1,"
0+"
0*"
0a!
1+
0,
0-
#540000
0!
0M
#545000
1!
1M
1R
0Q
1}!
1s!
0I!
1|
0t!
1$"
1t!
1%"
1+"
1*"
1)"
0&"
1,
1-
1.
11
#550000
0!
0M
#555000
1!
1M
1Q
1]!
0J!
1u
0|
#560000
0!
0M
#565000
1!
1M
1T
0S
0R
0Q
0O!
0~
0[
1!"
0}!
1a!
1I!
1|
0u
1e
1J!
14
0&
0,"
0)"
1&"
0$"
1e!
1~
0|
1O!
0<
0>
0~
0+
0.
1;
1>
1<
01
0>
#570000
0!
0M
#575000
1!
1M
1U
0T
1Q
0%"
0!"
0s!
0]!
0e
1a
15
04
1&
0'
1,"
0+"
0*"
0a!
0n
1e
0e!
1n
1+
0,
0-
0?
0;
1?
#580000
0!
0M
#585000
1!
1M
1W
0U
1R
0Q
1}!
1s!
0I!
1|
0e
0t!
0a
16
05
1'
0(
1$"
1t!
1~
0n
0u!
1%"
1u!
1>
0?
0:
1+"
1*"
1)"
0&"
1:
1,
1-
1.
11
#590000
0!
0M
#595000
1!
1M
1k
0W
1Q
1]!
0J!
1u
1a
17
06
1(
0)
0O!
0|
0~
0<
0>
#600000
0!
0M
#605000
1!
1M
1-"
0k
1S
0R
0Q
1O!
1~
0a
1[
1!"
0}!
1a!
1I!
1|
0u
1e
1J!
18
07
1)
0*
1n
0,"
0)"
1&"
0$"
0|
1<
1>
1?
0+
0.
01
#610000
0!
0M
#615000
1!
1M
0-"
1Q
0%"
0!"
0s!
0]!
0e
08
1*
1,"
0+"
0*"
0a!
1+
0,
0-
#620000
0!
0M
#625000
1!
1M
1R
0Q
1}!
1s!
0I!
1|
0t!
1$"
1t!
1%"
1+"
1*"
1)"
0&"
1,
1-
1.
11
#630000
0!
0M
#635000
1!
1M
1Q
1]!
0J!
1u
0|
#640000
0!
0M
#645000
1!
1M
1T
0S
0R
0Q
0O!
0~
0[
1!"
0}!
1a!
1I!
1|
0u
1e
1J!
14
0&
0,"
0)"
1&"
0$"
1e!
1~
0|
1O!
0<
0>
0~
0+
0.
1;
1>
1<
01
0>
#650000
0!
0M
#655000
1!
1M
1U
0T
1Q
0%"
0!"
0s!
0]!
0e
1a
15
04
1&
0'
1,"
0+"
0*"
0a!
0n
1e
0e!
1n
1+
0,
0-
0?
0;
1?
#660000
0!
0M
#665000
1!
1M
1W
0U
1R
0Q
1}!
1s!
0I!
1|
0e
0t!
0a
16
05
1'
0(
1$"
1t!
1~
0n
0u!
1%"
1u!
1>
0?
0:
1+"
1*"
1)"
0&"
1:
1,
1-
1.
11
#670000
0!
0M
#675000
1!
1M
1k
0W
1Q
1]!
0J!
1u
1a
17
06
1(
0)
0O!
0|
0~
0<
0>
#680000
0!
0M
#685000
1!
1M
1-"
0k
1S
0R
0Q
1O!
1~
0a
1[
1!"
0}!
1a!
1I!
1|
0u
1e
1J!
18
07
1)
0*
1n
0,"
0)"
1&"
0$"
0|
1<
1>
1?
0+
0.
01
#690000
0!
0M
#695000
1!
1M
0-"
1Q
0%"
0!"
0s!
0]!
0e
08
1*
1,"
0+"
0*"
0a!
1+
0,
0-
#700000
0!
0M
#705000
1!
1M
1R
0Q
1}!
1s!
0I!
1|
0t!
1$"
1t!
1%"
1+"
1*"
1)"
0&"
1,
1-
1.
11
#710000
0!
0M
#715000
1!
1M
1Q
1]!
0J!
1u
0|
#720000
0!
0M
#725000
1!
1M
1T
0S
0R
0Q
0O!
0~
0[
1!"
0}!
1a!
1I!
1|
0u
1e
1J!
14
0&
0,"
0)"
1&"
0$"
1e!
1~
0|
1O!
0<
0>
0~
0+
0.
1;
1>
1<
01
0>
#730000
0!
0M
#735000
1!
1M
1U
0T
1Q
0%"
0!"
0s!
0]!
0e
1a
15
04
1&
0'
1,"
0+"
0*"
0a!
0n
1e
0e!
1n
1+
0,
0-
0?
0;
1?
#740000
0!
0M
#745000
1!
1M
1W
0U
1R
0Q
1}!
1s!
0I!
1|
0e
0t!
0a
16
05
1'
0(
1$"
1t!
1~
0n
0u!
1%"
1u!
1>
0?
0:
1+"
1*"
1)"
0&"
1:
1,
1-
1.
11
#750000
0!
0M
#755000
1!
1M
1k
0W
1Q
1]!
0J!
1u
1a
17
06
1(
0)
0O!
0|
0~
0<
0>
#760000
b10 #
0!
0Y"
0M
0z!
1h!
1d!
1`!
1\!
1V!
1C!
0+!
1x
1t
1q
1j
0`
1I
1a!
1J!
1|
1m
1Q"
0F!
0V
1e!
1O!
1~
1n
0G!
0U!
1M!
1.!
0!!
1l
0Z
0{!
1I!
1;
1<
1>
1?
1D!
1E!
1V
1G!
1U!
0M!
0.!
1!!
0l
1Z
1{!
0I!
#765000
1!
1M
1-"
0k
1S
0R
0Q
0m
0a
1[
1!"
0}!
1e
03!
1+!
18
07
1)
0*
0,"
0)"
1&"
0$"
13!
0%"
0+
0.
01
0*"
1("
0-
1/
#770000
0!
0M
#775000
1!
1M
0-"
1Q
0!"
0s!
0+!
0e
08
1*
1,"
0+"
0("
1+
0,
0/
#780000
0!
0M
#785000
1!
1M
1R
0Q
1}!
1s!
0]!
0u
0t!
03!
1+!
1$"
1t!
13!
1%"
1+"
1*"
1)"
0&"
1,
1-
1.
11
#790000
0!
0M
#795000
1!
1M
1Q
1]!
0+!
1u
#800000
0!
0M
#805000
1!
1M
1T
0S
0R
0Q
0[
1!"
0}!
1e
03!
1+!
14
0&
0,"
0)"
1&"
0$"
07!
13!
0%"
17!
0+
0.
0=
01
0*"
1("
1=
0-
1/
#810000
0!
0M
#815000
1!
1M
1U
0T
1Q
0!"
0s!
0+!
0e
1a
15
04
1&
0'
1,"
0+"
0("
0n
1e
1n
1+
0,
0/
0?
1?
#820000
0!
0M
#825000
1!
1M
1W
0U
1R
0Q
1}!
1s!
0]!
0u
1m
0e
0t!
03!
1+!
0a
16
05
1'
0(
1$"
1t!
0u!
07!
13!
1%"
1u!
17!
0:
0=
1+"
1*"
1)"
0&"
1:
1=
1,
1-
1.
11
#830000
0!
0M
